[
  {
    "name": "Apple",
    "price": 25,
    "url": "apple.jpg",
    "code": 10101,
    "color": "red"
  },
  {
    "name": "Pineapple",
    "price": 60,
    "url": "https://i.picsum.photos/id/824/300/300.jpg?hmac=kIWcLr0RPi2ZRIEvyq0jKoiPhfU5ixYeEy8206NoZGQ",
    "code": 10102,
    "color": "yellow"
  },
  {
    "name": "Orange",
    "price": 30,
    "url": "https://i.picsum.photos/id/517/300/300.jpg?hmac=xDY76wxtwOZ5mEJYjf_i69VkVQibAYi036aADsWbaLs",
    "code": 10103,
    "color": "orange"
  },
  {
    "name": "Plum",
    "price": 35,
    "url": "plum.jpg",
    "code": 10104,
    "color": "violet"
  },
  {
    "name": "Melon",
    "price": 20,
    "url": "melon.jpg",
    "code": 10105,
    "color": "yellow"
  },
  {
    "name": "Watermelon",
    "price": 10,
    "url": "watermelon.jpg",
    "code": 10106,
    "color": "green"
  },
  {
    "name": "Pear",
    "price": 45,
    "url": "pear.jpg",
    "code": 10107,
    "color": "yellow"
  },
  {
    "name": "Cherry",
    "price": 50,
    "url": "cherry.jpg",
    "code": 10108,
    "color": "red"
  },
  {
    "name": "Strawberry",
    "price": 70,
    "url": "https://i.picsum.photos/id/1080/300/300.jpg?hmac=F09xOCQzvspocyWO9ZNfRHATaHt_XbBrhWlVsiOP05o",
    "code": 10109,
    "color": "red"
  },
  {
    "name": "Raspberries",
    "price": 75,
    "url": "https://i.picsum.photos/id/429/300/300.jpg?hmac=mkAsyBGglAdK-CPqnoTu0NPH-YDQHiNvLvA9cLTM8nA",
    "code": 10110,
    "color": "red"
  }
]